<?xml version="1.0" encoding="iso-8859-1"?>
<!-- Generator: Adobe Illustrator 18.0.0, SVG Export Plug-In . SVG Version: 6.00 Build 0)  -->
<!DOCTYPE svg PUBLIC "-//W3C//DTD SVG 1.1//EN" "http://www.w3.org/Graphics/SVG/1.1/DTD/svg11.dtd">
<svg version="1.1" id="Capa_1" xmlns="http://www.w3.org/2000/svg" xmlns:xlink="http://www.w3.org/1999/xlink" x="0px" y="0px"
	 width="20px" heigth="20px" viewBox="0 0 490 490" style="enable-background:new 0 0 490 490;" xml:space="preserve">
<g fill="#46b969">
	<path d="M0,174.431v72.738v137.447c0,32.118,26.037,58.154,58.154,58.154h373.692c32.117,0,58.153-26.037,58.153-58.154V247.17
		v-72.738v-13.273H0V174.431z M369.435,204.809c0-3.121,2.53-5.651,5.65-5.651h50.829c3.123,0,5.651,2.53,5.651,5.651v40.89
		c0,3.121-2.528,5.65-5.651,5.65h-50.829c-3.12,0-5.65-2.529-5.65-5.65V204.809z M369.435,279.145c0-3.12,2.53-5.651,5.65-5.651
		h50.829c3.123,0,5.651,2.531,5.651,5.651v40.89c0,3.121-2.528,5.65-5.651,5.65h-50.829c-3.12,0-5.65-2.529-5.65-5.65V279.145z
		 M369.435,353.48c0-3.12,2.53-5.651,5.65-5.651h50.829c3.123,0,5.651,2.531,5.651,5.651v40.89c0,3.121-2.528,5.65-5.651,5.65
		h-50.829c-3.12,0-5.65-2.529-5.65-5.65V353.48z M265.768,204.809c0-3.121,2.531-5.651,5.651-5.651h50.828
		c3.123,0,5.652,2.53,5.652,5.651v40.89c0,3.121-2.529,5.65-5.652,5.65h-50.828c-3.12,0-5.651-2.529-5.651-5.65V204.809z
		 M265.768,279.145c0-3.12,2.531-5.651,5.651-5.651h50.828c3.123,0,5.652,2.531,5.652,5.651v40.89c0,3.121-2.529,5.65-5.652,5.65
		h-50.828c-3.12,0-5.651-2.529-5.651-5.65V279.145z M265.768,353.48c0-3.12,2.531-5.651,5.651-5.651h50.828
		c3.123,0,5.652,2.531,5.652,5.651v40.89c0,3.121-2.529,5.65-5.652,5.65h-50.828c-3.12,0-5.651-2.529-5.651-5.65V353.48z
		 M162.101,204.809c0-3.121,2.53-5.651,5.651-5.651h50.828c3.123,0,5.652,2.53,5.652,5.651v40.89c0,3.121-2.529,5.65-5.652,5.65
		h-50.828c-3.121,0-5.651-2.529-5.651-5.65V204.809z M162.101,279.145c0-3.12,2.53-5.651,5.651-5.651h50.828
		c3.123,0,5.652,2.531,5.652,5.651v40.89c0,3.121-2.529,5.65-5.652,5.65h-50.828c-3.121,0-5.651-2.529-5.651-5.65V279.145z
		 M162.101,353.48c0-3.12,2.53-5.651,5.651-5.651h50.828c3.123,0,5.652,2.531,5.652,5.651v40.89c0,3.121-2.529,5.65-5.652,5.65
		h-50.828c-3.121,0-5.651-2.529-5.651-5.65V353.48z M58.435,204.809c0-3.121,2.53-5.651,5.65-5.651h50.828
		c3.123,0,5.652,2.53,5.652,5.651v40.89c0,3.121-2.529,5.65-5.652,5.65H64.085c-3.12,0-5.65-2.529-5.65-5.65V204.809z
		 M58.435,279.145c0-3.12,2.53-5.651,5.65-5.651h50.828c3.123,0,5.652,2.531,5.652,5.651v40.89c0,3.121-2.529,5.65-5.652,5.65
		H64.085c-3.12,0-5.65-2.529-5.65-5.65V279.145z M58.435,353.48c0-3.12,2.53-5.651,5.65-5.651h50.828
		c3.123,0,5.652,2.531,5.652,5.651v40.89c0,3.121-2.529,5.65-5.652,5.65H64.085c-3.12,0-5.65-2.529-5.65-5.65V353.48z"/>
	<path d="M489.7,99.438c-2.978-29.324-27.743-52.209-57.853-52.209h-0.001h-19.883v29.777c6.199,3.498,10.392,10.135,10.392,17.761
		c0,11.262-9.13,20.392-20.392,20.392c-11.262,0-20.392-9.13-20.392-20.392c0-7.626,4.193-14.263,10.392-17.761V47.229h-84.642
		v29.777c6.199,3.498,10.392,10.135,10.392,17.761c0,11.262-9.13,20.392-20.392,20.392s-20.391-9.13-20.391-20.392
		c0-7.626,4.193-14.263,10.392-17.761V47.229h-84.643v29.777c6.199,3.498,10.392,10.135,10.392,17.761
		c0,11.262-9.129,20.392-20.391,20.392c-11.262,0-20.392-9.13-20.392-20.392c0-7.626,4.193-14.263,10.392-17.761V47.229H98.037
		v29.776c6.199,3.498,10.392,10.135,10.392,17.761c0,11.262-9.129,20.392-20.392,20.392s-20.392-9.13-20.392-20.392
		c0-7.626,4.193-14.263,10.392-17.761V47.229H58.154h0c-27.099,0-49.869,18.536-56.323,43.621c-0.239,0.929-0.456,1.867-0.649,2.814
		c-0.388,1.893-0.683,3.819-0.881,5.774S0,103.376,0,105.384v35.775h490v-35.775C490,103.376,489.898,101.393,489.7,99.438z"/>
</g>
<g>
</g>
<g>
</g>
<g>
</g>
<g>
</g>
<g>
</g>
<g>
</g>
<g>
</g>
<g>
</g>
<g>
</g>
<g>
</g>
<g>
</g>
<g>
</g>
<g>
</g>
<g>
</g>
<g>
</g>
</svg>
