<?xml version="1.0" encoding="iso-8859-1"?>
<!-- Generator: Adobe Illustrator 17.1.0, SVG Export Plug-In . SVG Version: 6.00 Build 0)  -->
<!DOCTYPE svg PUBLIC "-//W3C//DTD SVG 1.1//EN" "http://www.w3.org/Graphics/SVG/1.1/DTD/svg11.dtd">
<svg version="1.1" id="Layer_1" xmlns="http://www.w3.org/2000/svg" xmlns:xlink="http://www.w3.org/1999/xlink" x="0px" y="0px"
	 viewBox="0 0 64 64" style="enable-background:new 0 0 64 64;" xml:space="preserve">
<path d="M11,35.122c-2.966,0-5.378,2.413-5.378,5.378S8.034,45.878,11,45.878s5.378-2.413,5.378-5.378S13.966,35.122,11,35.122z
	 M11,43c-1.381,0-2.5-1.119-2.5-2.5c0-1.381,1.119-2.5,2.5-2.5s2.5,1.119,2.5,2.5C13.5,41.881,12.381,43,11,43z"/>
<path d="M20,48V21c0-1.105-0.895-2-2-2H4c-1.105,0-2,0.895-2,2v27c0,1.105,0.895,2,2,2h14C19.105,50,20,49.105,20,48z M11,24
	c1.381,0,2.5,1.119,2.5,2.5c0,1.381-1.119,2.5-2.5,2.5s-2.5-1.119-2.5-2.5C8.5,25.119,9.619,24,11,24z M11,46.955
	c-3.559,0-6.455-2.896-6.455-6.455S7.441,34.045,11,34.045s6.455,2.896,6.455,6.455S14.559,46.955,11,46.955z"/>
<path d="M43,45v-3H22v3c0,1.105,0.895,2,2,2h17C42.105,47,43,46.105,43,45z"/>
<path d="M43,34c0-1.105-0.895-2-2-2H24c-1.105,0-2,0.895-2,2v7h21V34z M34,39H24v-5h10V39z M38,39c-1.381,0-2.5-1.119-2.5-2.5
	c0-1.381,1.119-2.5,2.5-2.5s2.5,1.119,2.5,2.5C40.5,37.881,39.381,39,38,39z"/>
<path d="M54,35.122c-2.966,0-5.378,2.413-5.378,5.378s2.413,5.378,5.378,5.378s5.378-2.413,5.378-5.378S56.966,35.122,54,35.122z
	 M54,43c-1.381,0-2.5-1.119-2.5-2.5c0-1.381,1.119-2.5,2.5-2.5s2.5,1.119,2.5,2.5C56.5,41.881,55.381,43,54,43z"/>
<path d="M61,19H47c-1.105,0-2,0.895-2,2v27c0,1.105,0.895,2,2,2h14c1.105,0,2-0.895,2-2V21C63,19.895,62.105,19,61,19z M54,24
	c1.381,0,2.5,1.119,2.5,2.5c0,1.381-1.119,2.5-2.5,2.5s-2.5-1.119-2.5-2.5C51.5,25.119,52.619,24,54,24z M54,46.955
	c-3.559,0-6.455-2.896-6.455-6.455s2.896-6.455,6.455-6.455s6.455,2.896,6.455,6.455S57.559,46.955,54,46.955z"/>
<rect x="24" y="48" width="4" height="2"/>
<rect x="37" y="48" width="4" height="2"/>
</svg>
