<?xml version="1.0" encoding="iso-8859-1"?>
<!-- Generator: Adobe Illustrator 17.1.0, SVG Export Plug-In . SVG Version: 6.00 Build 0)  -->
<!DOCTYPE svg PUBLIC "-//W3C//DTD SVG 1.1//EN" "http://www.w3.org/Graphics/SVG/1.1/DTD/svg11.dtd">
<svg version="1.1" id="Layer_1" xmlns="http://www.w3.org/2000/svg" xmlns:xlink="http://www.w3.org/1999/xlink" x="0px" y="0px"
	 viewBox="0 0 64 64" style="enable-background:new 0 0 64 64;" xml:space="preserve">
<path d="M16,50h35V14H16V50z M33.25,19.323c7.318,0,13.25,5.932,13.25,13.25c0,7.318-5.932,13.25-13.25,13.25S20,39.891,20,32.573
	C20,25.255,25.932,19.323,33.25,19.323z"/>
<circle cx="27.006" cy="29.932" r="1.998"/>
<circle cx="40.006" cy="29.932" r="1.998"/>
<path d="M36,39.077c0,0-0.165-1.947-2.501-1.947S31,39.077,31,39.077V41h5V39.077z"/>
</svg>
